info face="Vinque-Regular" size=32 bold=0 italic=0 charset="" unicode=0 stretchH=100 smooth=1 aa=1 padding=1,1,1,1 spacing=-2,-2
common lineHeight=40 base=33 scaleW=512 scaleH=512 pages=1 packed=0
page id=0 file="vinque.png"
chars count=97
char id=0       x=0    y=0    width=22   height=36   xoffset=-1   yoffset=3    xadvance=21   page=0    chnl=0 
char id=10      x=0    y=0    width=0    height=0    xoffset=-1   yoffset=0    xadvance=0    page=0    chnl=0 
char id=32      x=0    y=0    width=0    height=0    xoffset=-1   yoffset=0    xadvance=10   page=0    chnl=0 
char id=33      x=503  y=0    width=8    height=28   xoffset=0    yoffset=6    xadvance=9    page=0    chnl=0 
char id=34      x=145  y=93   width=12   height=12   xoffset=-1   yoffset=7    xadvance=11   page=0    chnl=0 
char id=35      x=290  y=65   width=20   height=23   xoffset=-1   yoffset=9    xadvance=18   page=0    chnl=0 
char id=36      x=206  y=65   width=17   height=27   xoffset=0    yoffset=7    xadvance=16   page=0    chnl=0 
char id=37      x=215  y=36   width=25   height=29   xoffset=0    yoffset=6    xadvance=24   page=0    chnl=0 
char id=38      x=62   y=65   width=25   height=28   xoffset=0    yoffset=7    xadvance=24   page=0    chnl=0 
char id=39      x=157  y=93   width=8    height=12   xoffset=-1   yoffset=7    xadvance=6    page=0    chnl=0 
char id=40      x=262  y=0    width=13   height=33   xoffset=0    yoffset=4    xadvance=14   page=0    chnl=0 
char id=41      x=275  y=0    width=13   height=33   xoffset=0    yoffset=4    xadvance=14   page=0    chnl=0 
char id=42      x=113  y=93   width=16   height=15   xoffset=0    yoffset=8    xadvance=16   page=0    chnl=0 
char id=43      x=96   y=93   width=17   height=17   xoffset=-1   yoffset=15   xadvance=15   page=0    chnl=0 
char id=44      x=177  y=93   width=8    height=11   xoffset=0    yoffset=26   xadvance=7    page=0    chnl=0 
char id=45      x=193  y=93   width=13   height=9    xoffset=-1   yoffset=19   xadvance=12   page=0    chnl=0 
char id=46      x=185  y=93   width=8    height=9    xoffset=0    yoffset=26   xadvance=8    page=0    chnl=0 
char id=47      x=230  y=0    width=16   height=34   xoffset=-1   yoffset=4    xadvance=14   page=0    chnl=0 
char id=48      x=41   y=65   width=21   height=28   xoffset=0    yoffset=7    xadvance=21   page=0    chnl=0 
char id=49      x=171  y=65   width=9    height=27   xoffset=0    yoffset=7    xadvance=9    page=0    chnl=0 
char id=50      x=86   y=36   width=24   height=29   xoffset=-1   yoffset=6    xadvance=23   page=0    chnl=0 
char id=51      x=110  y=36   width=22   height=29   xoffset=0    yoffset=6    xadvance=22   page=0    chnl=0 
char id=52      x=206  y=0    width=24   height=34   xoffset=-1   yoffset=7    xadvance=21   page=0    chnl=0 
char id=53      x=132  y=36   width=23   height=29   xoffset=0    yoffset=7    xadvance=23   page=0    chnl=0 
char id=54      x=155  y=36   width=20   height=29   xoffset=0    yoffset=6    xadvance=20   page=0    chnl=0 
char id=55      x=0    y=65   width=21   height=28   xoffset=-1   yoffset=6    xadvance=20   page=0    chnl=0 
char id=56      x=21   y=65   width=20   height=28   xoffset=0    yoffset=7    xadvance=20   page=0    chnl=0 
char id=57      x=175  y=36   width=20   height=29   xoffset=0    yoffset=6    xadvance=20   page=0    chnl=0 
char id=58      x=481  y=65   width=8    height=20   xoffset=0    yoffset=15   xadvance=8    page=0    chnl=0 
char id=59      x=310  y=65   width=8    height=22   xoffset=0    yoffset=15   xadvance=8    page=0    chnl=0 
char id=60      x=61   y=93   width=17   height=18   xoffset=0    yoffset=15   xadvance=17   page=0    chnl=0 
char id=61      x=129  y=93   width=16   height=14   xoffset=-1   yoffset=17   xadvance=14   page=0    chnl=0 
char id=62      x=78   y=93   width=18   height=18   xoffset=-1   yoffset=15   xadvance=17   page=0    chnl=0 
char id=63      x=195  y=36   width=20   height=29   xoffset=-1   yoffset=6    xadvance=19   page=0    chnl=0 
char id=64      x=180  y=65   width=26   height=27   xoffset=0    yoffset=7    xadvance=28   page=0    chnl=0 
char id=65      x=378  y=0    width=28   height=29   xoffset=-3   yoffset=6    xadvance=24   page=0    chnl=0 
char id=66      x=406  y=0    width=24   height=29   xoffset=0    yoffset=6    xadvance=24   page=0    chnl=0 
char id=67      x=240  y=36   width=25   height=28   xoffset=0    yoffset=6    xadvance=25   page=0    chnl=0 
char id=68      x=430  y=0    width=25   height=29   xoffset=0    yoffset=6    xadvance=25   page=0    chnl=0 
char id=69      x=265  y=36   width=25   height=28   xoffset=0    yoffset=6    xadvance=25   page=0    chnl=0 
char id=70      x=81   y=0    width=19   height=34   xoffset=0    yoffset=7    xadvance=19   page=0    chnl=0 
char id=71      x=290  y=36   width=27   height=28   xoffset=0    yoffset=6    xadvance=26   page=0    chnl=0 
char id=72      x=356  y=0    width=22   height=30   xoffset=0    yoffset=6    xadvance=23   page=0    chnl=0 
char id=73      x=336  y=0    width=20   height=31   xoffset=-2   yoffset=5    xadvance=17   page=0    chnl=0 
char id=74      x=100  y=0    width=20   height=34   xoffset=-2   yoffset=6    xadvance=18   page=0    chnl=0 
char id=75      x=317  y=36   width=24   height=28   xoffset=0    yoffset=6    xadvance=24   page=0    chnl=0 
char id=76      x=341  y=36   width=22   height=28   xoffset=0    yoffset=7    xadvance=21   page=0    chnl=0 
char id=77      x=22   y=0    width=29   height=35   xoffset=-1   yoffset=6    xadvance=28   page=0    chnl=0 
char id=78      x=51   y=0    width=25   height=35   xoffset=0    yoffset=6    xadvance=25   page=0    chnl=0 
char id=79      x=363  y=36   width=24   height=28   xoffset=0    yoffset=7    xadvance=24   page=0    chnl=0 
char id=80      x=120  y=0    width=25   height=34   xoffset=0    yoffset=6    xadvance=25   page=0    chnl=0 
char id=81      x=145  y=0    width=26   height=34   xoffset=0    yoffset=6    xadvance=25   page=0    chnl=0 
char id=82      x=455  y=0    width=25   height=29   xoffset=0    yoffset=6    xadvance=24   page=0    chnl=0 
char id=83      x=480  y=0    width=23   height=29   xoffset=0    yoffset=7    xadvance=23   page=0    chnl=0 
char id=84      x=387  y=36   width=26   height=28   xoffset=-1   yoffset=6    xadvance=25   page=0    chnl=0 
char id=85      x=0    y=36   width=24   height=29   xoffset=1    yoffset=6    xadvance=25   page=0    chnl=0 
char id=86      x=413  y=36   width=25   height=28   xoffset=-1   yoffset=6    xadvance=24   page=0    chnl=0 
char id=87      x=438  y=36   width=37   height=28   xoffset=0    yoffset=6    xadvance=36   page=0    chnl=0 
char id=88      x=87   y=65   width=24   height=27   xoffset=0    yoffset=7    xadvance=24   page=0    chnl=0 
char id=89      x=171  y=0    width=25   height=34   xoffset=-1   yoffset=6    xadvance=24   page=0    chnl=0 
char id=90      x=24   y=36   width=24   height=29   xoffset=0    yoffset=6    xadvance=24   page=0    chnl=0 
char id=91      x=300  y=0    width=12   height=32   xoffset=1    yoffset=4    xadvance=14   page=0    chnl=0 
char id=92      x=246  y=0    width=16   height=34   xoffset=-1   yoffset=4    xadvance=14   page=0    chnl=0 
char id=93      x=288  y=0    width=12   height=33   xoffset=1    yoffset=4    xadvance=14   page=0    chnl=0 
char id=94      x=165  y=93   width=12   height=12   xoffset=0    yoffset=9    xadvance=12   page=0    chnl=0 
char id=95      x=234  y=93   width=16   height=4    xoffset=-1   yoffset=36   xadvance=14   page=0    chnl=0 
char id=96      x=206  y=93   width=10   height=8    xoffset=-1   yoffset=9    xadvance=9    page=0    chnl=0 
char id=97      x=332  y=65   width=18   height=20   xoffset=0    yoffset=15   xadvance=17   page=0    chnl=0 
char id=98      x=48   y=36   width=19   height=29   xoffset=-1   yoffset=6    xadvance=18   page=0    chnl=0 
char id=99      x=318  y=65   width=14   height=21   xoffset=0    yoffset=14   xadvance=14   page=0    chnl=0 
char id=100     x=475  y=36   width=18   height=28   xoffset=0    yoffset=7    xadvance=18   page=0    chnl=0 
char id=101     x=350  y=65   width=14   height=20   xoffset=0    yoffset=15   xadvance=14   page=0    chnl=0 
char id=102     x=111  y=65   width=14   height=27   xoffset=0    yoffset=7    xadvance=13   page=0    chnl=0 
char id=103     x=125  y=65   width=17   height=27   xoffset=0    yoffset=14   xadvance=17   page=0    chnl=0 
char id=104     x=67   y=36   width=19   height=29   xoffset=-1   yoffset=7    xadvance=18   page=0    chnl=0 
char id=105     x=142  y=65   width=11   height=27   xoffset=-1   yoffset=8    xadvance=10   page=0    chnl=0 
char id=106     x=196  y=0    width=10   height=34   xoffset=-1   yoffset=7    xadvance=9    page=0    chnl=0 
char id=107     x=153  y=65   width=18   height=27   xoffset=-1   yoffset=7    xadvance=17   page=0    chnl=0 
char id=108     x=493  y=36   width=11   height=28   xoffset=-1   yoffset=7    xadvance=9    page=0    chnl=0 
char id=109     x=0    y=93   width=29   height=19   xoffset=-1   yoffset=15   xadvance=28   page=0    chnl=0 
char id=110     x=489  y=65   width=19   height=19   xoffset=-1   yoffset=15   xadvance=18   page=0    chnl=0 
char id=111     x=364  y=65   width=17   height=20   xoffset=0    yoffset=15   xadvance=17   page=0    chnl=0 
char id=112     x=223  y=65   width=19   height=26   xoffset=-1   yoffset=14   xadvance=17   page=0    chnl=0 
char id=113     x=242  y=65   width=17   height=26   xoffset=0    yoffset=14   xadvance=17   page=0    chnl=0 
char id=114     x=29   y=93   width=15   height=19   xoffset=-1   yoffset=15   xadvance=13   page=0    chnl=0 
char id=115     x=44   y=93   width=17   height=19   xoffset=0    yoffset=15   xadvance=17   page=0    chnl=0 
char id=116     x=278  y=65   width=12   height=24   xoffset=-1   yoffset=11   xadvance=11   page=0    chnl=0 
char id=117     x=381  y=65   width=19   height=20   xoffset=0    yoffset=14   xadvance=18   page=0    chnl=0 
char id=118     x=400  y=65   width=19   height=20   xoffset=-1   yoffset=14   xadvance=17   page=0    chnl=0 
char id=119     x=419  y=65   width=27   height=20   xoffset=-1   yoffset=14   xadvance=26   page=0    chnl=0 
char id=120     x=446  y=65   width=18   height=20   xoffset=0    yoffset=15   xadvance=18   page=0    chnl=0 
char id=121     x=259  y=65   width=19   height=26   xoffset=-1   yoffset=14   xadvance=18   page=0    chnl=0 
char id=122     x=464  y=65   width=17   height=20   xoffset=0    yoffset=14   xadvance=16   page=0    chnl=0 
char id=123     x=312  y=0    width=12   height=32   xoffset=0    yoffset=5    xadvance=12   page=0    chnl=0 
char id=124     x=76   y=0    width=5    height=35   xoffset=1    yoffset=5    xadvance=7    page=0    chnl=0 
char id=125     x=324  y=0    width=12   height=32   xoffset=0    yoffset=5    xadvance=12   page=0    chnl=0 
char id=126     x=216  y=93   width=18   height=8    xoffset=0    yoffset=17   xadvance=18   page=0    chnl=0 
kernings count=172
kerning first=86 second=47 amount=-4
kerning first=46 second=39 amount=-3
kerning first=66 second=44 amount=-2
kerning first=55 second=50 amount=-2
kerning first=55 second=52 amount=-5
kerning first=55 second=53 amount=-2
kerning first=50 second=55 amount=-2
kerning first=73 second=67 amount=-2
kerning first=46 second=84 amount=-2
kerning first=84 second=81 amount=-2
kerning first=44 second=67 amount=-3
kerning first=46 second=86 amount=-4
kerning first=46 second=71 amount=-1
kerning first=84 second=72 amount=-2
kerning first=46 second=74 amount=-4
kerning first=84 second=76 amount=-1
kerning first=73 second=83 amount=-1
kerning first=47 second=90 amount=-2
kerning first=102 second=101 amount=-2
kerning first=102 second=97 amount=-3
kerning first=47 second=99 amount=-3
kerning first=47 second=100 amount=-3
kerning first=46 second=65 amount=1
kerning first=47 second=109 amount=-3
kerning first=47 second=110 amount=-3
kerning first=47 second=111 amount=-3
kerning first=102 second=113 amount=-2
kerning first=47 second=114 amount=-2
kerning first=47 second=115 amount=-2
kerning first=70 second=117 amount=-2
kerning first=84 second=69 amount=-1
kerning first=76 second=89 amount=-2
kerning first=65 second=81 amount=-2
kerning first=70 second=97 amount=-2
kerning first=79 second=89 amount=-2
kerning first=68 second=73 amount=-2
kerning first=86 second=44 amount=-1
kerning first=79 second=86 amount=-1
kerning first=102 second=115 amount=-3
kerning first=83 second=65 amount=1
kerning first=101 second=97 amount=-1
kerning first=65 second=39 amount=-1
kerning first=55 second=57 amount=-2
kerning first=81 second=86 amount=-1
kerning first=65 second=67 amount=-1
kerning first=102 second=44 amount=-3
kerning first=55 second=44 amount=-4
kerning first=83 second=47 amount=-1
kerning first=70 second=113 amount=-2
kerning first=70 second=79 amount=-1
kerning first=88 second=84 amount=-2
kerning first=80 second=44 amount=-3
kerning first=44 second=74 amount=-4
kerning first=88 second=81 amount=-2
kerning first=47 second=120 amount=-4
kerning first=80 second=47 amount=-3
kerning first=69 second=44 amount=-2
kerning first=65 second=86 amount=-2
kerning first=88 second=79 amount=-2
kerning first=68 second=46 amount=-2
kerning first=80 second=65 amount=-1
kerning first=44 second=65 amount=1
kerning first=88 second=86 amount=-3
kerning first=84 second=73 amount=-1
kerning first=44 second=84 amount=-2
kerning first=67 second=89 amount=-2
kerning first=47 second=79 amount=-2
kerning first=81 second=47 amount=-1
kerning first=47 second=117 amount=-2
kerning first=81 second=88 amount=-3
kerning first=81 second=89 amount=-2
kerning first=76 second=73 amount=-1
kerning first=65 second=34 amount=-1
kerning first=47 second=101 amount=-3
kerning first=46 second=85 amount=-3
kerning first=77 second=65 amount=1
kerning first=70 second=89 amount=-1
kerning first=102 second=111 amount=-3
kerning first=67 second=47 amount=-1
kerning first=75 second=89 amount=-2
kerning first=66 second=89 amount=-2
kerning first=70 second=115 amount=-3
kerning first=114 second=99 amount=-1
kerning first=70 second=101 amount=-2
kerning first=114 second=47 amount=-3
kerning first=46 second=34 amount=-3
kerning first=71 second=44 amount=-3
kerning first=44 second=85 amount=-3
kerning first=75 second=79 amount=-2
kerning first=89 second=47 amount=-2
kerning first=78 second=73 amount=1
kerning first=111 second=47 amount=-2
kerning first=70 second=46 amount=-4
kerning first=47 second=83 amount=-2
kerning first=69 second=89 amount=-2
kerning first=78 second=44 amount=-1
kerning first=79 second=88 amount=-3
kerning first=73 second=52 amount=-2
kerning first=79 second=47 amount=-1
kerning first=76 second=86 amount=-2
kerning first=73 second=71 amount=-2
kerning first=47 second=81 amount=-2
kerning first=71 second=46 amount=-3
kerning first=44 second=86 amount=-4
kerning first=89 second=46 amount=-3
kerning first=86 second=65 amount=-1
kerning first=78 second=46 amount=-1
kerning first=82 second=86 amount=-2
kerning first=44 second=79 amount=-1
kerning first=102 second=100 amount=-3
kerning first=47 second=97 amount=-3
kerning first=73 second=79 amount=-3
kerning first=45 second=84 amount=-1
kerning first=69 second=86 amount=-2
kerning first=83 second=73 amount=-1
kerning first=82 second=65 amount=1
kerning first=44 second=34 amount=-3
kerning first=114 second=111 amount=-2
kerning first=84 second=79 amount=-2
kerning first=101 second=120 amount=-1
kerning first=73 second=84 amount=-2
kerning first=84 second=47 amount=-1
kerning first=46 second=79 amount=-1
kerning first=83 second=86 amount=-1
kerning first=68 second=44 amount=-2
kerning first=88 second=101 amount=-2
kerning first=84 second=84 amount=-3
kerning first=86 second=46 amount=-1
kerning first=45 second=74 amount=-4
kerning first=44 second=89 amount=-3
kerning first=102 second=99 amount=-2
kerning first=44 second=39 amount=-3
kerning first=46 second=67 amount=-3
kerning first=65 second=79 amount=-2
kerning first=70 second=111 amount=-2
kerning first=66 second=47 amount=-1
kerning first=76 second=85 amount=-2
kerning first=70 second=44 amount=-4
kerning first=80 second=46 amount=-3
kerning first=84 second=89 amount=-2
kerning first=70 second=81 amount=-1
kerning first=102 second=103 amount=-2
kerning first=47 second=113 amount=-3
kerning first=84 second=111 amount=-1
kerning first=69 second=46 amount=-2
kerning first=75 second=86 amount=-2
kerning first=68 second=86 amount=-3
kerning first=65 second=84 amount=-1
kerning first=68 second=89 amount=-3
kerning first=67 second=86 amount=-2
kerning first=47 second=71 amount=-1
kerning first=86 second=88 amount=-2
kerning first=102 second=46 amount=-3
kerning first=70 second=47 amount=-2
kerning first=68 second=47 amount=-2
kerning first=75 second=81 amount=-2
kerning first=55 second=46 amount=-4
kerning first=65 second=89 amount=-1
kerning first=85 second=73 amount=2
kerning first=46 second=89 amount=-3
kerning first=89 second=44 amount=-3
kerning first=46 second=81 amount=-1
kerning first=44 second=71 amount=-1
kerning first=45 second=86 amount=-2
kerning first=71 second=73 amount=-1
kerning first=73 second=81 amount=-3
kerning first=71 second=47 amount=-2
kerning first=44 second=81 amount=-1
kerning first=47 second=67 amount=-1
kerning first=47 second=116 amount=-2
kerning first=47 second=103 amount=-3
kerning first=66 second=46 amount=-2
